<?xml version="1.0" encoding="UTF-8" standalone="no"?>
<svg
   width="24"
   height="24"
   fill="none"
   viewBox="0 0 24 24"
   version="1.1"
   id="svg20"
   sodipodi:docname="other.svg"
   inkscape:version="1.2.2 (b0a8486541, 2022-12-01, custom)"
   xmlns:inkscape="http://www.inkscape.org/namespaces/inkscape"
   xmlns:sodipodi="http://sodipodi.sourceforge.net/DTD/sodipodi-0.dtd"
   xmlns="http://www.w3.org/2000/svg"
   xmlns:svg="http://www.w3.org/2000/svg">
  <defs
     id="defs24" />
  <sodipodi:namedview
     id="namedview22"
     pagecolor="#ffffff"
     bordercolor="#000000"
     borderopacity="0.25"
     inkscape:showpageshadow="2"
     inkscape:pageopacity="0.0"
     inkscape:pagecheckerboard="0"
     inkscape:deskcolor="#d1d1d1"
     showgrid="false"
     inkscape:zoom="42.791667"
     inkscape:cx="8.0973709"
     inkscape:cy="12.023369"
     inkscape:window-width="2560"
     inkscape:window-height="1360"
     inkscape:window-x="0"
     inkscape:window-y="0"
     inkscape:window-maximized="1"
     inkscape:current-layer="svg20" />
  <path
     d="m 4.6400825,16.754298 a 1.930726,1.930726 0 1 0 0,3.861452 1.930726,1.930726 0 0 0 0,-3.861452 z m -3.0891611,1.930726 a 3.0891612,3.0891612 0 1 1 6.1783223,0 3.0891612,3.0891612 0 0 1 -6.1783223,0 z"
     fill="#212121"
     id="path180"
     style="stroke-width:0.77229" />
  <path
     d="m 11.988107,16.753743 a 1.930726,1.930726 0 1 0 0,3.861452 1.930726,1.930726 0 0 0 0,-3.861452 z m -3.0891619,1.930726 a 3.0891618,3.0891618 0 1 1 6.1783239,0 3.0891618,3.0891618 0 0 1 -6.1783239,0 z"
     fill="#212121"
     id="path180-3"
     style="stroke-width:0.77229" />
  <path
     d="m 19.336132,16.753743 a 1.930726,1.930726 0 1 0 0,3.861452 1.930726,1.930726 0 0 0 0,-3.861452 z m -3.089162,1.930726 a 3.089162,3.089162 0 1 1 6.178324,0 3.089162,3.089162 0 0 1 -6.178324,0 z"
     fill="#212121"
     id="path180-3-6"
     style="stroke-width:0.77229" />
</svg>
