{
  "extensionDescription": {
    "message": "Lightbeam is a Firefox browser extension that uses interactive visualizations to show you the relationships between third parties and the sites you visit.",
    "description": "Description of the extension"
  },
  "welcome": {
    "message": "Welcome to Lightbeam!",
    "description": "Title of the page"
  },
  "thanksForDownloading": {
    "message": "Thanks for downloading Lightbeam!",
    "description": "Thanking the user for downloading the extension"
  },
  "letsGo": {
    "message": "Let's go!",
    "description": "Start Lightbeam"
  },
  "back": {
    "message": "Back",
    "description": "Go back"
  },
  "next": {
    "message": "Next",
    "description": "Continue to next step"
  },
  "skip": {
    "message": "Skip",
    "description": "Skip"
  },
  "openSettings": {
    "message": "Open Settings",
    "description": "Button to open settings"
  },
  "openWebsite": {
    "message": "Open homepage",
    "description": "Button to open homepage of Lightbeam"
  },
  "writeEmail": {
    "message": "Email the developer",
    "description": "Button to write an email to the developer"
  },
  "visualization": {
    "message": "Visualization",
    "description": "Header title used in the sidebar"
  },
  "graph": {
    "message": "Graph",
    "description": "Header title used in the sidebar"
  },
  "fuse": {
    "message": "Fuse",
    "description": "Enable fuse mode"
  },
  "fused": {
    "message": "Fused",
    "description": "Fused data"
  },
  "other": {
    "message": "Other",
    "description": "Header for miscellaneous"
  },
  "on": {
    "message": "On",
    "description": "Enable something"
  },
  "off": {
    "message": "Off",
    "description": "Disable something"
  },
  "createIssue": {
    "message": "Create Issue",
    "description": "Button that leads to issues on Gitlab"
  },
  "list": {
    "message": "List",
    "description": "Header title used in the sidebar"
  },
  "data": {
    "message": "Data",
    "description": "Header title used in the sidebar"
  },
  "saveData": {
    "message": "Save Data",
    "description": "A button to export the data"
  },
  "saveDataWithOptions": {
    "message": "Save Data ...",
    "description": "A button to export the data after choosing options"
  },
  "importData": {
    "message": "Import Data",
    "description": "Import Data"
  },
  "ImportingData": {
    "message": "Importing data...",
    "description": "Title shown above the loading animation"
  },
  "includeFusedData": {
    "message": "Include fused data",
    "description": "Options to add fused data to exported data"
  },
  "resetData": {
    "message": "Reset Data",
    "description": "Header used in some UI elements to reset the data"
  },
  "settings": {
    "message": "Settings",
    "description": "Header title used in the sidebar"
  },
  "trackingProtection": {
    "message": "Tracking Protection",
    "description": "User can en- and disable tracking protection"
  },
  "report": {
    "message": "Bugs and suggestions",
    "description": "User can use a link to report bugs and make suggestions on Gitlab"
  },
  "recordingStart": {
    "message": "Recording Since",
    "description": "Tells user since when Lightbeam is recording the data"
  },
  "websitesVisited": {
    "message": "Websites Visited",
    "description": "Tells user how many websites he/she visited."
  },
  "thirdPartyRequests": {
    "message": "3rd Party Requests",
    "description": "Tells user how many third party requests where made."
  },
  "resetDialog-1": {
    "message": "Pressing OK will delete all Lightbeam information including connection history, user preferences, block sites list, etc.",
    "description": "Dialog to explain what the reset does"
  },
  "resetDialog-2": {
    "message": "Your browser will be returned to the state of a fresh install of Lightbeam.",
    "description": "Dialog to explain what the reset does"
  },
  "cancel": {
    "message": "Cancel",
    "description": "Cancel an action"
  },
  "confirm": {
    "message": "OK",
    "description": "Confirm an action"
  },
  "deleteFuseGroup": {
    "message": "Delete Fuse Group",
    "description": "Delete a fuse group"
  },
  "fuseMode": {
    "message": "Fuse Mode",
    "description": "Fuse mode"
  },
  "customGroupPlaceholder": {
    "message": "Custom group #",
    "description": "Placeholder name for new fuse groups"
  },
  "requests": {
    "message": "requests",
    "description": "requests"
  },
  "warning": {
    "message": "Warning",
    "description": "Header for a dialog with a warning"
  },
  "performanceWarning": {
    "message": "You are going to display a graph with more than 200 nodes. Showing the graph could lead to bad performance or even a crash of Lightbeam.",
    "description": "Header for a dialog warning about bad performance"
  },
  "dontShowMessageAgainInSession": {
    "message": "Don't show this message again in this session.",
    "description": "Checkbox which the user can activate to disable a message."
  },
  "showGraph": {
    "message": "Show graph",
    "description": "Button to start the rendering"
  },
  "timeFrame": {
    "message": "Time Frame",
    "description": "Header for filter option"
  },
  "lastDay": {
    "message": "Last Day",
    "description": "Radio button for time frame"
  },
  "lastWeek": {
    "message": "Last Week",
    "description": "Radio button for time frame"
  },
  "lastMonth": {
    "message": "Last Month",
    "description": "Radio button for time frame"
  },
  "anytime": {
    "message": "Anytime",
    "description": "Radio button for time frame"
  },
  "minThirdParties": {
    "message": "Min Third Parties",
    "description": "Header for filter option"
  },
  "minThirdPartiesDescription": {
    "message": "Show only first parties with at least this number of third parties",
    "description": "Checkbox label"
  },
  "numFirstParties": {
    "message": "Number of 1st party nodes",
    "description": "Header for filter option"
  },
  "numFirstPartiesDescription": {
    "message": "Limit the number of first party nodes",
    "description": "Checkbox label"
  }
}
